module backend

go 1.20

require (
	gorm.io/driver/mysql v1.4.7
	gorm.io/gorm v1.24.5
)

require github.com/dgrijalva/jwt-go v3.2.0+incompatible

require github.com/gin-contrib/cors v1.4.0 // indirect

require (
	github.com/bytedance/sonic v1.8.2 // indirect
	github.com/chenzhuoyu/base64x v0.0.0-20221115062448-fe3a3abad311 // indirect
	github.com/gin-contrib/sse v0.1.0 // indirect
	github.com/gin-gonic/gin v1.9.0
	github.com/go-playground/locales v0.14.1 // indirect
	github.com/go-playground/universal-translator v0.18.1 // indirect
	github.com/go-playground/validator/v10 v10.11.2 // indirect
	github.com/go-sql-driver/mysql v1.7.0 // indirect
	github.com/goccy/go-json v0.10.0 // indirect
	github.com/jinzhu/inflection v1.0.0 // indirect
	github.com/jinzhu/now v1.1.5 // indirect
	github.com/json-iterator/go v1.1.12 // indirect
	github.com/klauspost/cpuid/v2 v2.2.4 // indirect
	github.com/leodido/go-urn v1.2.2 // indirect
	github.com/mattn/go-isatty v0.0.17 // indirect
	github.com/modern-go/concurrent v0.0.0-20180306012644-bacd9c7ef1dd // indirect
	github.com/modern-go/reflect2 v1.0.2 // indirect
	github.com/pelletier/go-toml/v2 v2.0.6 // indirect
	github.com/twitchyliquid64/golang-asm v0.15.1 // indirect
	github.com/ugorji/go/codec v1.2.10 // indirect
	golang.org/x/arch v0.2.0 // indirect
	golang.org/x/crypto v0.6.0
	golang.org/x/net v0.7.0 // indirect
	golang.org/x/sys v0.5.0 // indirect
	golang.org/x/text v0.7.0 // indirect
	google.golang.org/protobuf v1.28.1 // indirect
	gopkg.in/yaml.v3 v3.0.1 // indirect
)
